1     	 0000					.public _leftCircularBuffer
2     	 0000					.public _rightCircularBuffer
3     	 0000					.public _surround
4     	 0000					.public _Surround_Init
5     	 0000					.public _Surround_SetMode
6     							.xdata_ovly
6      >> start of macro: .xdata_ovly
1+    									seg_single , "X_OVLY", X
1+     >> start of macro: seg_single
1+    						  .if ( "" != "" ) & defined( ___SegStart_X_ )
2+    						    segment
3+    						  .else
4+    						    segment "X_OVLY"
5+    							.if "" != ""
6+    						___SegStart_X_
7+    							.endif
8+    						  .endif
9+    							#RememberSegmentType
10+    >> end of macro: seg_single
2+     >> end of macro: .xdata_ovly
7     	 0000				__extractedConst_0_2
8     	 0000					.dw  (0x4026e73d)
	 0000	 4026E73D	 
9     							.xdata_ovly
9      >> start of macro: .xdata_ovly
1+    									seg_single , "X_OVLY", X
1+     >> start of macro: seg_single
1+    						  .if ( "" != "" ) & defined( ___SegStart_X_ )
2+    						    segment
3+    						  .else
4+    						    segment "X_OVLY"
5+    							.if "" != ""
6+    						___SegStart_X_
7+    							.endif
8+    						  .endif
9+    							#RememberSegmentType
10+    >> end of macro: seg_single
2+     >> end of macro: .xdata_ovly
10    	 0000				__extractedConst_1_2
11    	 0000					.dw  (0x721482c0)
	 0000	 721482C0	 
12    							.ydata_ovly align 64
12     >> start of macro: .ydata_ovly align
1+    									seg_align , "Y_OVLY", Y, 64
1+     >> start of macro: seg_align
1+    						    SEGMENT "Y_OVLY" ALIGN( 64 )
2+    						  .if "" != ""
3+    						___SegStart_Y_
4+    						  .endif
5+    							#RememberSegmentType
6+     >> end of macro: seg_align
2+     >> end of macro: .ydata_ovly align
13    	 0000				_leftCircularBuffer
14    	 0000					.bss (0x40)
15    							.ydata_ovly align 64
15     >> start of macro: .ydata_ovly align
1+    									seg_align , "Y_OVLY", Y, 64
1+     >> start of macro: seg_align
1+    						    SEGMENT "Y_OVLY" ALIGN( 64 )
2+    						  .if "" != ""
3+    						___SegStart_Y_
4+    						  .endif
5+    							#RememberSegmentType
6+     >> end of macro: seg_align
2+     >> end of macro: .ydata_ovly align
16    	 0000				_rightCircularBuffer
17    	 0000					.bss (0x40)
18    							.xdata_ovly
18     >> start of macro: .xdata_ovly
1+    									seg_single , "X_OVLY", X
1+     >> start of macro: seg_single
1+    						  .if ( "" != "" ) & defined( ___SegStart_X_ )
2+    						    segment
3+    						  .else
4+    						    segment "X_OVLY"
5+    							.if "" != ""
6+    						___SegStart_X_
7+    							.endif
8+    						  .endif
9+    							#RememberSegmentType
10+    >> end of macro: seg_single
2+     >> end of macro: .xdata_ovly
19    	 0000				_surround
20    	 0000					.bss (0x6e)
21    							.code_ovly
21     >> start of macro: .code_ovly
1+    									seg_single , "CODE_OVLY", CODE
1+     >> start of macro: seg_single
1+    						  .if ( "" != "" ) & defined( ___SegStart_CODE_ )
2+    						    segment
3+    						  .else
4+    						    segment "CODE_OVLY"
5+    							.if "" != ""
6+    						___SegStart_CODE_
7+    							.endif
8+    						  .endif
9+    							#RememberSegmentType
10+    >> end of macro: seg_single
2+     >> end of macro: .code_ovly
22    						
23    						
24    						
25    	 0000				_Surround_Init:			/* LN: 8 | CYCLE: 0 | RULES: () */ 
26    	 0000	 BB540007		xmem[i7] = i7			# LN: 8 | 
27    	 0001	 020F7FFF		i7 += 1			# LN: 8 | 
28    	 0002	 B2540017		xmem[i7] = i2; i7 += 1			# LN: 8, 8 | 
29    	 0003	 8775000C		i7 = i7 + (0xc)			# LN: 8 | 
30    	 0004	 92750001		i2 = i7 - (0x1)			# LN: 8 | 
31    	 0005	 98540002		xmem[i2] = a0h			# LN: 8 | 
32    	 0006	 92750002		i2 = i7 - (0x2)			# LN: 8 | 
33    	 0007	 99540002		xmem[i2] = a1h			# LN: 8 | 
34    	 0008	 92750003		i2 = i7 - (0x3)			# LN: 8 | 
35    	 0009	 9C540002		xmem[i2] = b0h			# LN: 8 | 
36    	 000A	 92750004		i2 = i7 - (0x4)			# LN: 8 | 
37    	 000B	 B0540002		xmem[i2] = i0			# LN: 8 | 
38    	 000C	 90750005		i0 = i7 - (0x5)			# LN: 8 | 
39    	 000D	 B1540000		xmem[i0] = i1			# LN: 8 | 
40    	 000E	 90750006		i0 = i7 - (0x6)			# LN: 8 | 
41    	 000F	 B8540000		xmem[i0] = i4			# LN: 8 | 
42    	 0010	 90750007		i0 = i7 - (0x7)			# LN: 8 | 
43    	 0011	 B9540000		xmem[i0] = i5			# LN: 8 | 
44    	 0012	 9075000F		i0 = i7 - (0xf)			# LN: 8 | 
45    	 0013	 88140000		a0 = xmem[i0]			# LN: 8 | 
46    	 0014	 90750008		i0 = i7 - (0x8)			# LN: 8 | 
47    	 0015	 88540000		xmem[i0] = a0			# LN: 8 | 
48    	 0016	 90750010		i0 = i7 - (0x10)			# LN: 8 | 
49    	 0017	 88140000		a0 = xmem[i0]			# LN: 8 | 
50    	 0018	 90750009		i0 = i7 - (0x9)			# LN: 8 | 
51    	 0019	 88540000		xmem[i0] = a0			# LN: 8 | 
52    	 001A	 90750011		i0 = i7 - (0x11)			# LN: 8 | 
53    	 001B	 88140000		a0 = xmem[i0]			# LN: 8 | 
54    	 001C	 9075000A		i0 = i7 - (0xa)			# LN: 8 | 
55    	 001D	 88540000		xmem[i0] = a0			# LN: 8 | 
56    	 001E	 90750012		i0 = i7 - (0x12)			# LN: 8 | 
57    	 001F	 88140000		a0 = xmem[i0]			# LN: 8 | 
58    	 0020	 9075000B		i0 = i7 - (0xb)			# LN: 8 | 
59    	 0021	 88540000		xmem[i0] = a0			# LN: 8 | 
60    	 0022				cline_8_0:			/* LN: 21 | CYCLE: 0 | RULES: () */ 
61    	 0022	 90750004		i0 = i7 - (0x4)			# LN: 21 | 
62    	 0023	 B0140000		i0 = xmem[i0]			# LN: 21 | 
63    	 0024	 B0440007		xmem[_surround + 7] = i0			# LN: 21 | 
64    	 0025				cline_21_0:			/* LN: 22 | CYCLE: 0 | RULES: () */ 
65    	 0025	 90750005		i0 = i7 - (0x5)			# LN: 22 | 
66    	 0026	 B0140000		i0 = xmem[i0]			# LN: 22 | 
67    	 0027	 B0440008		xmem[_surround + 8] = i0			# LN: 22 | 
68    	 0028				cline_22_0:			/* LN: 23 | CYCLE: 0 | RULES: () */ 
69    	 0028	 90750006		i0 = i7 - (0x6)			# LN: 23 | 
70    	 0029	 B0140000		i0 = xmem[i0]			# LN: 23 | 
71    	 002A	 B0440009		xmem[_surround + 9] = i0			# LN: 23 | 
72    	 002B				cline_23_0:			/* LN: 24 | CYCLE: 0 | RULES: () */ 
73    	 002B	 90750007		i0 = i7 - (0x7)			# LN: 24 | 
74    	 002C	 B0140000		i0 = xmem[i0]			# LN: 24 | 
75    	 002D	 B044000A		xmem[_surround + 10] = i0			# LN: 24 | 
76    	 002E				cline_24_0:			/* LN: 25 | CYCLE: 0 | RULES: () */ 
77    	 002E	 90750008		i0 = i7 - (0x8)			# LN: 25 | 
78    	 002F	 B0140000		i0 = xmem[i0]			# LN: 25 | 
79    	 0030	 B044000B		xmem[_surround + 11] = i0			# LN: 25 | 
80    	 0031				cline_25_0:			/* LN: 26 | CYCLE: 0 | RULES: () */ 
81    	 0031	 90750009		i0 = i7 - (0x9)			# LN: 26 | 
82    	 0032	 B0140000		i0 = xmem[i0]			# LN: 26 | 
83    	 0033	 B044000C		xmem[_surround + 12] = i0			# LN: 26 | 
84    	 0034				cline_26_0:			/* LN: 27 | CYCLE: 0 | RULES: () */ 
85    	 0034	 9075000A		i0 = i7 - (0xa)			# LN: 27 | 
86    	 0035	 B0140000		i0 = xmem[i0]			# LN: 27 | 
87    	 0036	 B044000D		xmem[_surround + 13] = i0			# LN: 27 | 
88    	 0037				cline_27_0:			/* LN: 28 | CYCLE: 0 | RULES: () */ 
89    	 0037	 9075000B		i0 = i7 - (0xb)			# LN: 28 | 
90    	 0038	 B0140000		i0 = xmem[i0]			# LN: 28 | 
91    	 0039	 B044000E		xmem[_surround + 14] = i0			# LN: 28 | 
92    	 003A				cline_28_0:			/* LN: 30 | CYCLE: 0 | RULES: () */ 
93    	 003A	 90750001		i0 = i7 - (0x1)			# LN: 30 | 
94    	 003B	 88140000		a0 = xmem[i0]			# LN: 30 | 
95    	 003C	 98440000		xmem[_surround + 0] = a0h			# LN: 30 | 
96    	 003D				cline_30_0:			/* LN: 31 | CYCLE: 0 | RULES: () */ 
97    	 003D	 90750001		i0 = i7 - (0x1)			# LN: 31 | 
98    	 003E	 88140000		a0 = xmem[i0]			# LN: 31 | 
99    	 003F	 98440001		xmem[_surround + 1] = a0h			# LN: 31 | 
100   	 0040				cline_31_0:			/* LN: 32 | CYCLE: 0 | RULES: () */ 
101   	 0040	 90750002		i0 = i7 - (0x2)			# LN: 32 | 
102   	 0041	 88140000		a0 = xmem[i0]			# LN: 32 | 
103   	 0042	 98440002		xmem[_surround + 2] = a0h			# LN: 32 | 
104   	 0043				cline_32_0:			/* LN: 33 | CYCLE: 0 | RULES: () */ 
105   	 0043	 88040000		a0 = xmem[__extractedConst_0_2 + 0]			# LN: 33 | 
106   	 0044	 98440003		xmem[_surround + 3] = a0h			# LN: 33 | 
107   	 0045				cline_33_0:			/* LN: 34 | CYCLE: 0 | RULES: () */ 
108   	 0045	 88040000		a0 = xmem[__extractedConst_1_2 + 0]			# LN: 34 | 
109   	 0046	 98440004		xmem[_surround + 4] = a0h			# LN: 34 | 
110   	 0047				cline_34_0:			/* LN: 35 | CYCLE: 0 | RULES: () */ 
111   	 0047	 88040000		a0 = xmem[__extractedConst_1_2 + 0]			# LN: 35 | 
112   	 0048	 98440005		xmem[_surround + 5] = a0h			# LN: 35 | 
113   	 0049				cline_35_0:			/* LN: 36 | CYCLE: 0 | RULES: () */ 
114   	 0049	 88040000		a0 = xmem[__extractedConst_0_2 + 0]			# LN: 36 | 
115   	 004A	 98440006		xmem[_surround + 6] = a0h			# LN: 36 | 
116   	 004B				cline_36_0:			/* LN: 38 | CYCLE: 0 | RULES: () */ 
117   	 004B	 00004DC0		a0 = 0			# LN: 38 | 
118   	 004C	 9844006C		xmem[_surround + 108] = a0h			# LN: 38 | 
119   	 004D				cline_38_0:			/* LN: 39 | CYCLE: 0 | RULES: () */ 
120   	 004D	 884A002B		uhalfword(a0) = (0x2b)			# LN: 39 | 
121   	 004E	 9844006D		xmem[_surround + 109] = a0h			# LN: 39 | 
122   	 004F				cline_39_0:			/* LN: 41 | CYCLE: 0 | RULES: () */ 
123   	 004F	 9075000C		i0 = i7 - (0xc)			# LN: 41 | 
124   	 0050	 00004DC0		a0 = 0			# LN: 41 | 
125   	 0051	 98540000		xmem[i0] = a0h			# LN: 41 | 
126   	 0052	 82C00064		do (0x2c), label_end_92			# LN: 41 | 
127   	 0053				cline_41_0:			/* LN: 42 | CYCLE: 0 | RULES: () */ 
128   	 0053				label_begin_92:			/* LN: 41 | CYCLE: 0 | RULES: () */ 
129   	 0053	 9075000C		i0 = i7 - (0xc)			# LN: 42 | 
130   	 0054	 18404DC1		a0 = xmem[i0]; a1 = 0			# LN: 42, 42 | 
131   	 0055	 48707FFF		i0 = a0			# LN: 42 | 
132   	 0056	 00007FFF		nop #empty cycle
133   	 0057	 80050014		i0 = i0 + (_surround + 20)			# LN: 42 | 
134   	 0058	 99540000		xmem[i0] = a1h			# LN: 42 | 
135   	 0059				cline_42_0:			/* LN: 43 | CYCLE: 0 | RULES: () */ 
136   	 0059	 9075000C		i0 = i7 - (0xc)			# LN: 43 | 
137   	 005A	 18404DC1		a0 = xmem[i0]; a1 = 0			# LN: 43, 43 | 
138   	 005B	 48707FFF		i0 = a0			# LN: 43 | 
139   	 005C	 00007FFF		nop #empty cycle
140   	 005D	 80050040		i0 = i0 + (_surround + 64)			# LN: 43 | 
141   	 005E	 99540000		xmem[i0] = a1h			# LN: 43 | 
142   	 005F				cline_43_0:			/* LN: 41 | CYCLE: 0 | RULES: () */ 
143   	 005F				init_latch_label_0:			/* LN: 44 | CYCLE: 0 | RULES: () */ 
144   	 005F	 9075000C		i0 = i7 - (0xc)			# LN: 41 | 
145   	 0060	 88140000		a0 = xmem[i0]			# LN: 41 | 
146   	 0061	 894A0001		uhalfword(a1) = (0x1)			# LN: 41 | 
147   	 0062	 00004408		a0 = a0 + a1			# LN: 41 | 
148   	 0063	 9075000C		i0 = i7 - (0xc)			# LN: 41 | 
149   	 0064				label_end_92:			# LN: 41 | CYCLE: 5 | RULES: ()
150   	 0064	 98540000		xmem[i0] = a0h			# LN: 41 | 
151   	 0065				cline_41_1:			/* LN: 46 | CYCLE: 0 | RULES: () */ 
152   	 0065				for_end_0:			/* LN: 41 | CYCLE: 0 | RULES: () */ 
153   	 0065	 90750003		i0 = i7 - (0x3)			# LN: 46 | 
154   	 0066	 88140000		a0 = xmem[i0]			# LN: 46 | 
155   	 0067	 8088006D		call (_Surround_SetMode)			# LN: 46 | 
156   	 0068				cline_46_0:			/* LN: 47 | CYCLE: 0 | RULES: () */ 
157   	 0068	 80080069		jmp (__epilogue_106)			# LN: 47 | 
158   	 0069				__epilogue_106:			/* LN: 47 | CYCLE: 0 | RULES: () */ 
159   	 0069	 9775000C		i7 = i7 - (0xc)			# LN: 47 | 
160   	 006A	 02177FFF		i7 -= 1			# LN: 47 | 
161   	 006B	 B2140027		i2 = xmem[i7]; i7 -= 1			# LN: 47, 47 | 
162   	 006C	 81880000		ret			# LN: 47 | 
163   						
164   						
165   						
166   	 006D				_Surround_SetMode:			/* LN: 50 | CYCLE: 0 | RULES: () */ 
167   	 006D	 BB540007		xmem[i7] = i7			# LN: 50 | 
168   	 006E	 020F7FFF		i7 += 1			# LN: 50 | 
169   	 006F	 87750001		i7 = i7 + (0x1)			# LN: 50 | 
170   	 0070	 90750001		i0 = i7 - (0x1)			# LN: 50 | 
171   	 0071	 98540000		xmem[i0] = a0h			# LN: 50 | 
172   	 0072				cline_50_0:			/* LN: 51 | CYCLE: 0 | RULES: () */ 
173   	 0072				switch_0:			/* LN: 51 | CYCLE: 0 | RULES: () */ 
174   	 0072	 90750001		i0 = i7 - (0x1)			# LN: 51 | 
175   	 0073	 88140000		a0 = xmem[i0]			# LN: 51 | 
176   	 0074	 00004E80		a0 & a0			# LN: 51 | 
177   	 0075	 8408008B		if (a == 0) jmp (case_0)			# LN: 51 | 
178   	 0076	 90750001		i0 = i7 - (0x1)			# LN: 51 | 
179   	 0077	 88140000		a0 = xmem[i0]			# LN: 51 | 
180   	 0078	 894A0001		uhalfword(a1) = (0x1)			# LN: 51 | 
181   	 0079	 00004F08		a0 - a1			# LN: 51 | 
182   	 007A	 84080096		if (a == 0) jmp (case_1)			# LN: 51 | 
183   	 007B	 90750001		i0 = i7 - (0x1)			# LN: 51 | 
184   	 007C	 88140000		a0 = xmem[i0]			# LN: 51 | 
185   	 007D	 894A0002		uhalfword(a1) = (0x2)			# LN: 51 | 
186   	 007E	 00004F08		a0 - a1			# LN: 51 | 
187   	 007F	 840800A1		if (a == 0) jmp (case_2)			# LN: 51 | 
188   	 0080	 90750001		i0 = i7 - (0x1)			# LN: 51 | 
189   	 0081	 88140000		a0 = xmem[i0]			# LN: 51 | 
190   	 0082	 894A0003		uhalfword(a1) = (0x3)			# LN: 51 | 
191   	 0083	 00004F08		a0 - a1			# LN: 51 | 
192   	 0084	 840800AC		if (a == 0) jmp (case_3)			# LN: 51 | 
193   	 0085	 90750001		i0 = i7 - (0x1)			# LN: 51 | 
194   	 0086	 88140000		a0 = xmem[i0]			# LN: 51 | 
195   	 0087	 894A0004		uhalfword(a1) = (0x4)			# LN: 51 | 
196   	 0088	 00004F08		a0 - a1			# LN: 51 | 
197   	 0089	 840800B7		if (a == 0) jmp (case_4)			# LN: 51 | 
198   	 008A	 800800C2		jmp (switch_end_0)			# LN: 51 | 
199   	 008B				cline_51_0:			/* LN: 53 | CYCLE: 0 | RULES: () */ 
200   	 008B				case_0:			/* LN: 52 | CYCLE: 0 | RULES: () */ 
201   	 008B	 884A0001		uhalfword(a0) = (0x1)			# LN: 53 | 
202   	 008C	 9844000F		xmem[_surround + 15] = a0h			# LN: 53 | 
203   	 008D				cline_53_0:			/* LN: 54 | CYCLE: 0 | RULES: () */ 
204   	 008D	 00004DC0		a0 = 0			# LN: 54 | 
205   	 008E	 98440010		xmem[_surround + 16] = a0h			# LN: 54 | 
206   	 008F				cline_54_0:			/* LN: 55 | CYCLE: 0 | RULES: () */ 
207   	 008F	 00004DC0		a0 = 0			# LN: 55 | 
208   	 0090	 98440011		xmem[_surround + 17] = a0h			# LN: 55 | 
209   	 0091				cline_55_0:			/* LN: 56 | CYCLE: 0 | RULES: () */ 
210   	 0091	 884A0001		uhalfword(a0) = (0x1)			# LN: 56 | 
211   	 0092	 98440012		xmem[_surround + 18] = a0h			# LN: 56 | 
212   	 0093				cline_56_0:			/* LN: 57 | CYCLE: 0 | RULES: () */ 
213   	 0093	 00004DC0		a0 = 0			# LN: 57 | 
214   	 0094	 98440013		xmem[_surround + 19] = a0h			# LN: 57 | 
215   	 0095				cline_57_0:			/* LN: 58 | CYCLE: 0 | RULES: () */ 
216   	 0095	 800800C2		jmp (switch_end_0)			# LN: 58 | 
217   	 0096				cline_58_0:			/* LN: 61 | CYCLE: 0 | RULES: () */ 
218   	 0096				case_1:			/* LN: 60 | CYCLE: 0 | RULES: () */ 
219   	 0096	 884A0001		uhalfword(a0) = (0x1)			# LN: 61 | 
220   	 0097	 9844000F		xmem[_surround + 15] = a0h			# LN: 61 | 
221   	 0098				cline_61_0:			/* LN: 62 | CYCLE: 0 | RULES: () */ 
222   	 0098	 00004DC0		a0 = 0			# LN: 62 | 
223   	 0099	 98440010		xmem[_surround + 16] = a0h			# LN: 62 | 
224   	 009A				cline_62_0:			/* LN: 63 | CYCLE: 0 | RULES: () */ 
225   	 009A	 00004DC0		a0 = 0			# LN: 63 | 
226   	 009B	 98440011		xmem[_surround + 17] = a0h			# LN: 63 | 
227   	 009C				cline_63_0:			/* LN: 64 | CYCLE: 0 | RULES: () */ 
228   	 009C	 884A0001		uhalfword(a0) = (0x1)			# LN: 64 | 
229   	 009D	 98440012		xmem[_surround + 18] = a0h			# LN: 64 | 
230   	 009E				cline_64_0:			/* LN: 65 | CYCLE: 0 | RULES: () */ 
231   	 009E	 884A0001		uhalfword(a0) = (0x1)			# LN: 65 | 
232   	 009F	 98440013		xmem[_surround + 19] = a0h			# LN: 65 | 
233   	 00A0				cline_65_0:			/* LN: 66 | CYCLE: 0 | RULES: () */ 
234   	 00A0	 800800C2		jmp (switch_end_0)			# LN: 66 | 
235   	 00A1				cline_66_0:			/* LN: 69 | CYCLE: 0 | RULES: () */ 
236   	 00A1				case_2:			/* LN: 68 | CYCLE: 0 | RULES: () */ 
237   	 00A1	 00004DC0		a0 = 0			# LN: 69 | 
238   	 00A2	 9844000F		xmem[_surround + 15] = a0h			# LN: 69 | 
239   	 00A3				cline_69_0:			/* LN: 70 | CYCLE: 0 | RULES: () */ 
240   	 00A3	 884A0001		uhalfword(a0) = (0x1)			# LN: 70 | 
241   	 00A4	 98440010		xmem[_surround + 16] = a0h			# LN: 70 | 
242   	 00A5				cline_70_0:			/* LN: 71 | CYCLE: 0 | RULES: () */ 
243   	 00A5	 00004DC0		a0 = 0			# LN: 71 | 
244   	 00A6	 98440011		xmem[_surround + 17] = a0h			# LN: 71 | 
245   	 00A7				cline_71_0:			/* LN: 72 | CYCLE: 0 | RULES: () */ 
246   	 00A7	 00004DC0		a0 = 0			# LN: 72 | 
247   	 00A8	 98440012		xmem[_surround + 18] = a0h			# LN: 72 | 
248   	 00A9				cline_72_0:			/* LN: 73 | CYCLE: 0 | RULES: () */ 
249   	 00A9	 00004DC0		a0 = 0			# LN: 73 | 
250   	 00AA	 98440013		xmem[_surround + 19] = a0h			# LN: 73 | 
251   	 00AB				cline_73_0:			/* LN: 74 | CYCLE: 0 | RULES: () */ 
252   	 00AB	 800800C2		jmp (switch_end_0)			# LN: 74 | 
253   	 00AC				cline_74_0:			/* LN: 77 | CYCLE: 0 | RULES: () */ 
254   	 00AC				case_3:			/* LN: 76 | CYCLE: 0 | RULES: () */ 
255   	 00AC	 884A0001		uhalfword(a0) = (0x1)			# LN: 77 | 
256   	 00AD	 9844000F		xmem[_surround + 15] = a0h			# LN: 77 | 
257   	 00AE				cline_77_0:			/* LN: 78 | CYCLE: 0 | RULES: () */ 
258   	 00AE	 884A0001		uhalfword(a0) = (0x1)			# LN: 78 | 
259   	 00AF	 98440010		xmem[_surround + 16] = a0h			# LN: 78 | 
260   	 00B0				cline_78_0:			/* LN: 79 | CYCLE: 0 | RULES: () */ 
261   	 00B0	 00004DC0		a0 = 0			# LN: 79 | 
262   	 00B1	 98440011		xmem[_surround + 17] = a0h			# LN: 79 | 
263   	 00B2				cline_79_0:			/* LN: 80 | CYCLE: 0 | RULES: () */ 
264   	 00B2	 00004DC0		a0 = 0			# LN: 80 | 
265   	 00B3	 98440012		xmem[_surround + 18] = a0h			# LN: 80 | 
266   	 00B4				cline_80_0:			/* LN: 81 | CYCLE: 0 | RULES: () */ 
267   	 00B4	 884A0001		uhalfword(a0) = (0x1)			# LN: 81 | 
268   	 00B5	 98440013		xmem[_surround + 19] = a0h			# LN: 81 | 
269   	 00B6				cline_81_0:			/* LN: 82 | CYCLE: 0 | RULES: () */ 
270   	 00B6	 800800C2		jmp (switch_end_0)			# LN: 82 | 
271   	 00B7				cline_82_0:			/* LN: 85 | CYCLE: 0 | RULES: () */ 
272   	 00B7				case_4:			/* LN: 84 | CYCLE: 0 | RULES: () */ 
273   	 00B7	 884A0001		uhalfword(a0) = (0x1)			# LN: 85 | 
274   	 00B8	 9844000F		xmem[_surround + 15] = a0h			# LN: 85 | 
275   	 00B9				cline_85_0:			/* LN: 86 | CYCLE: 0 | RULES: () */ 
276   	 00B9	 884A0001		uhalfword(a0) = (0x1)			# LN: 86 | 
277   	 00BA	 98440010		xmem[_surround + 16] = a0h			# LN: 86 | 
278   	 00BB				cline_86_0:			/* LN: 87 | CYCLE: 0 | RULES: () */ 
279   	 00BB	 884A0001		uhalfword(a0) = (0x1)			# LN: 87 | 
280   	 00BC	 98440011		xmem[_surround + 17] = a0h			# LN: 87 | 
281   	 00BD				cline_87_0:			/* LN: 88 | CYCLE: 0 | RULES: () */ 
282   	 00BD	 884A0001		uhalfword(a0) = (0x1)			# LN: 88 | 
283   	 00BE	 98440012		xmem[_surround + 18] = a0h			# LN: 88 | 
284   	 00BF				cline_88_0:			/* LN: 89 | CYCLE: 0 | RULES: () */ 
285   	 00BF	 00004DC0		a0 = 0			# LN: 89 | 
286   	 00C0	 98440013		xmem[_surround + 19] = a0h			# LN: 89 | 
287   	 00C1				cline_89_0:			/* LN: 90 | CYCLE: 0 | RULES: () */ 
288   	 00C1	 800800C2		jmp (switch_end_0)			# LN: 90 | 
289   	 00C2				cline_90_0:			/* LN: 92 | CYCLE: 0 | RULES: () */ 
290   	 00C2				switch_end_0:			/* LN: 51 | CYCLE: 0 | RULES: () */ 
291   	 00C2	 800800C3		jmp (__epilogue_108)			# LN: 92 | 
292   	 00C3				__epilogue_108:			/* LN: 92 | CYCLE: 0 | RULES: () */ 
293   	 00C3	 97750001		i7 = i7 - (0x1)			# LN: 92 | 
294   	 00C4	 02177FFF		i7 -= 1			# LN: 92 | 
295   	 00C5	 81880000		ret			# LN: 92 | 
296   						(null)
				 SYMBOL TABLE 

    Name                                                                                    Type                  Value 

_COMMON_INC_PATH_                                                               					 Define                 "C:/CirrusDSP/crystal32/common/inc/"
_DSP_                                                                           					 Define                 "a"
_LOCAL_INC_PATH_                                                                					 Define                 "inc/"
_LOCAL_SRC_PATH_                                                                					 Define                 "src/"
_MUI_VERSION_                                                                   					 Define                 "020000"
_OVLY_                                                                          					 Define                 "standalone"
_OVLY_REVISION_                                                                 					 Define                 "020000"
_ROUTER_INC_PATH_                                                               					 Define                 "rom_inc/"
_SLOT_                                                                          					 Define                 "0"
_Surround_Init                                                                  			  Public Relocatable       Surround_GEN_0005:0000H
_Surround_SetMode                                                               			  Public Relocatable       Surround_GEN_0005:006DH
_TARGET_FAMILY_                                                                 					 Define                 "crystal32"
_TOOLS_VERSION_                                                                 					 Define                 "0x0701"
_VERSION_                                                                       					 Define                 "00"
__CASM_VER__                                                                    			  Unused Variable		        0 (701H)
__epilogue_106                                                                  			         Relocatable         Surround_GEN_0005:0069H
__epilogue_108                                                                  			         Relocatable         Surround_GEN_0005:00C3H
__extractedConst_0_2                                                            			         Relocatable         Surround_GEN_0000:0000H
__extractedConst_1_2                                                            			         Relocatable         Surround_GEN_0001:0000H
_leftCircularBuffer                                                             			  Public Relocatable       Surround_GEN_0002:0000H
_rightCircularBuffer                                                            			  Public Relocatable       Surround_GEN_0003:0000H
_surround                                                                       			  Public Relocatable       Surround_GEN_0004:0000H
case_0                                                                          			         Relocatable         Surround_GEN_0005:008BH
case_1                                                                          			         Relocatable         Surround_GEN_0005:0096H
case_2                                                                          			         Relocatable         Surround_GEN_0005:00A1H
case_3                                                                          			         Relocatable         Surround_GEN_0005:00ACH
case_4                                                                          			         Relocatable         Surround_GEN_0005:00B7H
cline_21_0                                                                      			  Unused Relocatable        Surround_GEN_0005:0025H
cline_22_0                                                                      			  Unused Relocatable        Surround_GEN_0005:0028H
cline_23_0                                                                      			  Unused Relocatable        Surround_GEN_0005:002BH
cline_24_0                                                                      			  Unused Relocatable        Surround_GEN_0005:002EH
cline_25_0                                                                      			  Unused Relocatable        Surround_GEN_0005:0031H
cline_26_0                                                                      			  Unused Relocatable        Surround_GEN_0005:0034H
cline_27_0                                                                      			  Unused Relocatable        Surround_GEN_0005:0037H
cline_28_0                                                                      			  Unused Relocatable        Surround_GEN_0005:003AH
cline_30_0                                                                      			  Unused Relocatable        Surround_GEN_0005:003DH
cline_31_0                                                                      			  Unused Relocatable        Surround_GEN_0005:0040H
cline_32_0                                                                      			  Unused Relocatable        Surround_GEN_0005:0043H
cline_33_0                                                                      			  Unused Relocatable        Surround_GEN_0005:0045H
cline_34_0                                                                      			  Unused Relocatable        Surround_GEN_0005:0047H
cline_35_0                                                                      			  Unused Relocatable        Surround_GEN_0005:0049H
cline_36_0                                                                      			  Unused Relocatable        Surround_GEN_0005:004BH
cline_38_0                                                                      			  Unused Relocatable        Surround_GEN_0005:004DH
cline_39_0                                                                      			  Unused Relocatable        Surround_GEN_0005:004FH
cline_41_0                                                                      			  Unused Relocatable        Surround_GEN_0005:0053H
cline_41_1                                                                      			  Unused Relocatable        Surround_GEN_0005:0065H
cline_42_0                                                                      			  Unused Relocatable        Surround_GEN_0005:0059H
cline_43_0                                                                      			  Unused Relocatable        Surround_GEN_0005:005FH
cline_46_0                                                                      			  Unused Relocatable        Surround_GEN_0005:0068H
cline_50_0                                                                      			  Unused Relocatable        Surround_GEN_0005:0072H
cline_51_0                                                                      			  Unused Relocatable        Surround_GEN_0005:008BH
cline_53_0                                                                      			  Unused Relocatable        Surround_GEN_0005:008DH
cline_54_0                                                                      			  Unused Relocatable        Surround_GEN_0005:008FH
cline_55_0                                                                      			  Unused Relocatable        Surround_GEN_0005:0091H
cline_56_0                                                                      			  Unused Relocatable        Surround_GEN_0005:0093H
cline_57_0                                                                      			  Unused Relocatable        Surround_GEN_0005:0095H
cline_58_0                                                                      			  Unused Relocatable        Surround_GEN_0005:0096H
cline_61_0                                                                      			  Unused Relocatable        Surround_GEN_0005:0098H
cline_62_0                                                                      			  Unused Relocatable        Surround_GEN_0005:009AH
cline_63_0                                                                      			  Unused Relocatable        Surround_GEN_0005:009CH
cline_64_0                                                                      			  Unused Relocatable        Surround_GEN_0005:009EH
cline_65_0                                                                      			  Unused Relocatable        Surround_GEN_0005:00A0H
cline_66_0                                                                      			  Unused Relocatable        Surround_GEN_0005:00A1H
cline_69_0                                                                      			  Unused Relocatable        Surround_GEN_0005:00A3H
cline_70_0                                                                      			  Unused Relocatable        Surround_GEN_0005:00A5H
cline_71_0                                                                      			  Unused Relocatable        Surround_GEN_0005:00A7H
cline_72_0                                                                      			  Unused Relocatable        Surround_GEN_0005:00A9H
cline_73_0                                                                      			  Unused Relocatable        Surround_GEN_0005:00ABH
cline_74_0                                                                      			  Unused Relocatable        Surround_GEN_0005:00ACH
cline_77_0                                                                      			  Unused Relocatable        Surround_GEN_0005:00AEH
cline_78_0                                                                      			  Unused Relocatable        Surround_GEN_0005:00B0H
cline_79_0                                                                      			  Unused Relocatable        Surround_GEN_0005:00B2H
cline_80_0                                                                      			  Unused Relocatable        Surround_GEN_0005:00B4H
cline_81_0                                                                      			  Unused Relocatable        Surround_GEN_0005:00B6H
cline_82_0                                                                      			  Unused Relocatable        Surround_GEN_0005:00B7H
cline_85_0                                                                      			  Unused Relocatable        Surround_GEN_0005:00B9H
cline_86_0                                                                      			  Unused Relocatable        Surround_GEN_0005:00BBH
cline_87_0                                                                      			  Unused Relocatable        Surround_GEN_0005:00BDH
cline_88_0                                                                      			  Unused Relocatable        Surround_GEN_0005:00BFH
cline_89_0                                                                      			  Unused Relocatable        Surround_GEN_0005:00C1H
cline_8_0                                                                       			  Unused Relocatable        Surround_GEN_0005:0022H
cline_90_0                                                                      			  Unused Relocatable        Surround_GEN_0005:00C2H
for_end_0                                                                       			  Unused Relocatable        Surround_GEN_0005:0065H
init_latch_label_0                                                              			  Unused Relocatable        Surround_GEN_0005:005FH
label_begin_92                                                                  			  Unused Relocatable        Surround_GEN_0005:0053H
label_end_92                                                                    			         Relocatable         Surround_GEN_0005:0064H
switch_0                                                                        			  Unused Relocatable        Surround_GEN_0005:0072H
switch_end_0                                                                    			         Relocatable         Surround_GEN_0005:00C2H

	       SEGMENTS:

Size			  Name										 Class
0000H	 __INIT                                  			 CODE                                    
0001H	 Surround_GEN_0000                       			 X_OVLY                                  
0001H	 Surround_GEN_0001                       			 X_OVLY                                  
0040H	 Surround_GEN_0002                       			 Y_OVLY                                  
0040H	 Surround_GEN_0003                       			 Y_OVLY                                  
006EH	 Surround_GEN_0004                       			 X_OVLY                                  
00C6H	 Surround_GEN_0005                       			 CODE_OVLY                               
